*** Life<Cell> 20x20 ***

Generation = 0, Population = 48.
------0---------0---
-------------0------
--0--00----0-0------
------------0----0--
---00-----0----0-0--
--------------------
--0---0----0--------
-0---0----0-----0---
------0------------0
-------0--------0-0-
------------0-------
-0----00-------0----
--0---------0-----0-
-------------------0
---0---------0-0---0
--------------------
-------0-----0-----0
--0--------0--------
-0------0-----------
------------0-------

Generation = 5, Population = 193.
--01.**0-00.*.1--*0-
00-00-*00--..*0--*0-
1-0-1*.-0-*1-*-**-00
0*0-0--01-*0---1-10.
--.----1-00*.-1-**-*
-----0---0*01---**--
---.1*--0-----01-10-
--00-1-*---0--1-----
-00-1--0-0--10-0--*-
--------0-0--0-*00*-
-0-10-.0-0110-11-0.-
00--1.-*---0-100--**
-0-1--0-*0-0-.1.10-0
0--0--1-000*0--**-**
01-----.-1-1*-0*-0-*
0*-0-01----0100-0-00
0-*10---*--*-10-00--
-00-0-**-1-0.*0-0--*
0--1-*-.*0--*.-1--01
-0--00-0100--0---0-0

Generation = 10, Population = 184.
-0*****---*....--*1-
-1-*1-..-*-*.**--..-
--***...1*.--*0*.-1*
-*0--..-10..-*-.110.
*.****1.10-..--...-.
-*.-0.*-*1....0-.*..
*..*.**-10*.11-.1.*0
1--**.0.-*0-10*.1---
..10-*.*.01..-.1-*.-
-0*1011-*-***--*-*..
-*-.11.**-...*-*-.*0
110-**..-*1***0-10.*
-.0*-..-.-11*.*...**
*.1*0-.0-1*.-*1..*.*
***-*-0.**1..-1*-0-.
-*-*-*.*.*--.*.1**-*
10..1--1.-*...1-..--
-1--.-.*1.0...1--0-.
0---*.-**-*...--01**
-01---1.*.-*-.10--11

*** Life<Cell> 20x10 ***

Generation = 0, Population = 57.
--00--000-
---0--0--0
--0-00--00
-0--0-0---
-----00---
--00--0---
0---------
--00---0-0
----------
----------
-------0--
--0------0
0----0----
-0---0-0-0
-0000---0-
--0-------
-00-0-000-
0--00-00--
--0--00-00
----------

Generation = 5, Population = 89.
..-.110-.-
--0--..0-.
-*-11.-1*.
-1-*.-.1-.
11-.1*-.--
*1..--..0-
-01---*---
***.**1000
*0-10011-0
0-*-01-*-*
*1-----0**
.1---.*-0-
0--0.*1---
--0-0.00--
0-*-.*-0*-
-.*-0-*00-
-.--.-1-*-
*1..-1.0-1
*...110.**
.--11-.1-0

Generation = 10, Population = 75.
..-..1--.-
-00*-...-.
...-..-.*.
1-0..-..*.
-*..*****0
.*..**.*-.
---.1*.**.
...*..1.-1
*--.....--
*-.--*..-.
*--0.1-..*
.*0**..-1*
--00....*0
-..-1.-0-1
0-....-.*.
-.*--1.*1-
1*.**-*1*-
.*.*1.*0-*
....1.1***
.***.0.--*

Generation = 15, Population = 67.
..-..1--.-
-*0*-**.-.
...1***...
..-*...*..
-.*.*****.
*....*....
***.-.....
....*.-.-.
*.**....-*
*-*-......
***.***.**
.*.*...-*.
---*.....*
.**--*--..
-1....-..*
..*.1-**.-
.....-.-*-
.*******-.
.......**.
.***.0..1.

Generation = 20, Population = 67.
..-****-.-
-.-.**.*1.
.***.*.*..
.*1...*...
*.***..**.
*..****.*.
*......*..
*....**...
***.**.*..
***1...*..
..*....*..
.*.....-*.
1**.....**
.**-..-1*.
.....*0...
.....*...-
.......-.1
.....***-.
.....*....
.....**...

*** Life<Cell> 25x25 ***

Generation = 0, Population = 74.
0------0---------0-------
-------0--00--------0---0
----0--------------------
-----00-------00---0-----
-------------------------
---0--------------0------
---------0--0-0-0--------
------0----------0-------
---------------0-----0---
----0-------------------0
------0-----------0------
--------0---0----0-0-----
--------0----------------
----0------------0----0--
-----0---------0---------
-----------0-----------0-
-----------0-----0--0----
--------0------0---------
------------00-00--------
---------------------00--
-0----0---------0-0----0-
-------0--------0---0----
---------------00-0------
-0---------0--00--0-0----
----------00------0--000-

Generation = 2, Population = 192.
--0-00-*-0-----0-0-0-----
------1-1---1000--01----0
0-0---11---------0-------
----0---0-0001--1-1-10--0
----0----0--0-1-0--------
-0------------1011-10----
-------0--110--00-1--0---
---0----0------1--10----0
------1--0--001-1100---0-
--0-----0---0------0--0-0
----1----------00---00---
------1-------00---0-00-0
-----0----0----0--0------
--0---0-1--00--1-0--0--10
---0---00--1-0------0----
----0---00---0-1-1---01--
-----0---0--1--11-11--0--
------0---01-1---1---000-
-0----0---0--*-0*---0--0-
-------00------10--0---00
---00---0---000-*---11---
-1---0---0-0---0--0-01---
-1----0---01-00--0*-000--
---0---0-0--1---010---1--
--------01*010-1---1--0-1

Generation = 4, Population = 202.
--00--1*1--0-1-------0---
------.1--1-.-001-*---0--
-------*10--0-1-00-------
-01---*--1-0-.-*.110.--1-
0------0------.1-0---1---
----1-----11--1--.-.*-0--
----001-0-.-*1--0-.-0----
--1--01-0-1-010.-0.--1---
--------1--1--.-.1-*-----
0--11---0--------10-0----
--1--1---00-1--0*-----1--
----1-1-1--001-*00---0---
----1------01--0-0--11---
0---0---.----0-*--0--1-.-
-0----0--0-.1*-00-01-----
-------00---0--.-1---*11-
-0----000----1-1*-*.-1-00
-------1---*1.--11-10-*--
-----1--11-0-.0-*0000----
-1-----------001-1--1--0*
-11--0------*-*-*110-1---
-.-1----0--*0--00-*-**--0
-.--------*--**000.-0*-1-
-----0-0----.---**0010--1
-0-----0-..0.----111--*-1

Generation = 6, Population = 277.
01**--***10-0-0*10-1-0-0-
-01--0.1*--1.000--.*---10
0-10-0-*-0--00.--0110----
0-.11**-0*---.1*.*1-.*---
0-1-*--0-----0**0*-1---1-
-00-.01---.*0--1-.-..1010
0-110----1.1*--*-0.--01--
------100----*-.-*.1--10-
--1-1---1----1.-*1*.-10--
010..------1------*-0-1--
1--0------*1.0--*110-0--0
--11.----0-0-.1.*-1-0*-0-
-0---1---0---110-*-1..-0-
0---*--0.--1-*0*00-01.1.-
-0-0--0----.1.0--1-.---10
0---0010-0--*-0*11--1.-10
-0-00----*0**1-**0*.0.-0*
-1---1-.1--...--*10--*.0-
--00-1-0..1--.--*---*1-1-
-.-----11--10*0*1---.-**.
11.-*0-0*0-0.-.0**.*1.--0
0.0---01-1-.-010--.1..1-0
-.0--1-11-.-0..*--*0**011
-----0-*111**---..--*0-0*
-0-0-1-*-*.0.10--1*-0-.1.

*** Life<Cell> 15x15 ***

Generation = 0, Population = 53.
---0-----00-0--
--0-000-0--0--0
--0----0-----0-
---0--0----0-0-
---0---------0-
-0--0----0-0---
----00--00--0--
--------0000-0-
---0------0-0--
--0------------
-0---0-----00-0
0-00----------0
-----------0---
--0---------0--
--------0-0---0

Generation = 1, Population = 92.
-----00--110-00
-0101-10-------
-01-000-----01-
---100----0---0
-001--0--0--010
0-0-1----1---0-
-0-0-100-1-0---
---000-0-111--0
----0---0-10---
-----0----00--0
--000-0---011-1
-01100------001
0--0------0---0
-0-0----0-0--00
--0----0---000-

Generation = 2, Population = 103.
-000-1--0*-1-11
0-*---*100000-0
0---11----001*-
--0-1-0----0-01
-11-0--001-01*-
--1----00-00-1-
--01------01000
-00-1-010-**00-
----10---0*10--
--000---0011-01
---1---0-0-*-0-
-1*-11--------*
-0---0--001000-
--010-----1----
------0----1---

Generation = 3, Population = 124.
-111-----.1*0*-
10*-10*-111---1
10-0-*000---*.0
0-1--0--00---1*
0**-10--1*01-.-
----1-0--1-1---
--1*--0--11-1-1
01-0*01-11..---
-0--*1-00-.--00
-011----1-**0-*
-00*000-010*-11
0-*1*-000-0-00*
010001001-*--1-
--1-1-0-0-*000-
--0000-0----0--

*** Life<Cell> 18x18 ***

Generation = 0, Population = 86.
0-0-0---0--0------
-----00---000-----
----0-----0-0---0-
-----0-0-0---0----
----0-0-00---0----
--0--------000--0-
-0-----0---0------
-0---0--------0--0
00-----0000-------
0---0----0-0------
---0----0---00----
---------000--0---
---0000--00--00-00
-0-00-00----------
-00------------000
-0---0--0--00-----
0-----0-----0----0
--------0---0--0-0

Generation = 1, Population = 160.
------00-0-1------
0-0-011000-1-0--0-
---0-000--101--0-0
----0-0-01---10-0-
--00-0-01-00--0-0-
---00-00000---00-0
01---00-0-01-00-00
--0-0-0-0000-0-00-
--0-0001-11---0--0
1----0-0010--0----
0-0----0-00011----
----000---11-01000
-00-1---0---01--11
010--0-1000--000--
011-00000--00-01-1
-1--0--0-001-0-00-
-------0-----0-001
0-----00-0-0100--1

Generation = 2, Population = 141.
0-0-0---01-*00--0-
---01*----0-0-0---
0-------00*1*0----
--00--1--*0--*-01-
-01-----*--10--01-
00--1--1--10--11-1
1*-00110--1-------
0-1-1--0-1---1-1-0
001--11--**--0----
*0---101--1--1---0
1--00--10--1-*-000
00-0--1-0----1--1-
----*00-1---1*00--
--10010---1-0-1---
-----1---00-1--*0-
-*-01---01--0101-0
00--0---0-0---0-1-
-0---01----1-11--*

Generation = 3, Population = 159.
---01--01*0*11-0-0
---1**1--01----00-
-00-000011.-.--00-
0--100-00.-00*---0
----0-0-*-0-1--1--
-1--*--*-0---0*-0-
*.01---10-*--00---
--*0*001-*0-0*----
11-0---10**00-00--
.--0--1---*-0-00-1
-00-1-0--0---*-11-
-1-10-*0-0-1---0*-
0000.11-*000-.11--
-1*-1--10-*--0*00-
-11-0*--------0.1-
-*-1---0--01--1---
110-1-0010--00-0-1
-10--1*00----*-0-.

