*** Life<ConwayCell> 4x4 ***

Generation = 0, Population = 4.
....
.**.
.**.
....

Generation = 1, Population = 4.
....
.**.
.**.
....

*** Life<ConwayCell> 5x5 ***

Generation = 0, Population = 3.
.....
.....
.***.
.....
.....

Generation = 1, Population = 3.
.....
..*..
..*..
..*..
.....

Generation = 2, Population = 3.
.....
.....
.***.
.....
.....

*** Life<ConwayCell> 100x100 ***

Generation = 0, Population = 130.
....................................................................................................
..........*...............................................................*.........................
.........................................................................*..........................
......................................*.............................................................
......................................*.............................................................
.........................*..............................................................*...........
............*...................*...................................................................
................................................................................*...................
.............................................**..........*..........................................
............*........................................................*..............................
...........................*........................................................................
.........................................*..........................................................
....................................................................................................
....................................................................................................
...............................................................................................*.*..
.......................*..............................*.............................................
...............................................*....................................................
............*.......................................................................................
....................................................................................................
...................................................*................................................
......*...................................................................................*.........
......*.....................................................*.....................*.................
.........*........................................................................*.................
.........................................................................................*..........
....................................................................................................
...*.......................................*...........*............................................
................................*..................................................................*
.......................................*............................................................
....................................................................................................
...............................................................................*....................
....................................................................................................
........................*....*................................................................*.....
..................*..........*......................................................................
.......*.*...................................................................................*......
....................................................................................................
....................................................................................................
............................................*............*..........................................
...............................................*....................................................
....................................................................................................
..............................*..................................................*..................
....................................................................................................
..................................................................................................*.
......................................*.............................................................
.......................................................................................*............
....................................*.......*............................................*..........
....................................................................................................
.................................*................................................*.................
...........................................................................................*........
............*.......................................................................................
.......................................*.......*..*.................................................
....................................................................................................
.........*..........................................*...............................................
...........................*........................................................................
........................................................*...........................................
.*....................................................................*.............................
...................*..........................................*.....................................
....................................................*...............................................
........*......................................................................................*....
..........................*.........................................................................
.................................................................................................*..
..........*..............*..............*..........*................................................
...................................................*.*..............................................
....................................................................................................
....................................................................*....*..........................
....................................................................................................
.........*...........................................................*..............................
....................................................................................................
....................................................................................................
.............*......................................................................................
....................................................................................................
....................................................................................................
....................................................................................................
....................................................................................................
............................................................................*.......................
...........................................*.....................................................*..
....................................................................................................
.....*......................*..............................*..............*.........................
.................................................................................*..................
...........**.*.....................................................................................
.....................*..............................................................................
.........................................................*....................*.....................
........*...........................................................................................
......................*.................................*..........................................*
....................*...............................................................................
....................................................................................................
...............................................................................*.....*..............
..................*.................................................................................
....................................................................................................
........................*...........................................................................
........................................*............................................*..............
....................................................................................................
.................................*..............................*...................................
...............*...........................*.............................................*..........
.......................................*............................................................
.......................................*............................................................
..................*...................*.............................................................
.......................................................*............................................
.........................................................................*......................*...
............................*......................................*................................
.....................................*........................................*.....................

Generation = 5, Population = 0.
....................................................................................................
....................................................................................................
....................................................................................................
....................................................................................................
....................................................................................................
....................................................................................................
....................................................................................................
....................................................................................................
....................................................................................................
....................................................................................................
....................................................................................................
....................................................................................................
....................................................................................................
....................................................................................................
....................................................................................................
....................................................................................................
....................................................................................................
....................................................................................................
....................................................................................................
....................................................................................................
....................................................................................................
....................................................................................................
....................................................................................................
....................................................................................................
....................................................................................................
....................................................................................................
....................................................................................................
....................................................................................................
....................................................................................................
....................................................................................................
....................................................................................................
....................................................................................................
....................................................................................................
....................................................................................................
....................................................................................................
....................................................................................................
....................................................................................................
....................................................................................................
....................................................................................................
....................................................................................................
....................................................................................................
....................................................................................................
....................................................................................................
....................................................................................................
....................................................................................................
....................................................................................................
....................................................................................................
....................................................................................................
....................................................................................................
....................................................................................................
....................................................................................................
....................................................................................................
....................................................................................................
....................................................................................................
....................................................................................................
....................................................................................................
....................................................................................................
....................................................................................................
....................................................................................................
....................................................................................................
....................................................................................................
....................................................................................................
....................................................................................................
....................................................................................................
....................................................................................................
....................................................................................................
....................................................................................................
....................................................................................................
....................................................................................................
....................................................................................................
....................................................................................................
....................................................................................................
....................................................................................................
....................................................................................................
....................................................................................................
....................................................................................................
....................................................................................................
....................................................................................................
....................................................................................................
....................................................................................................
....................................................................................................
....................................................................................................
....................................................................................................
....................................................................................................
....................................................................................................
....................................................................................................
....................................................................................................
....................................................................................................
....................................................................................................
....................................................................................................
....................................................................................................
....................................................................................................
....................................................................................................
....................................................................................................
....................................................................................................
....................................................................................................
....................................................................................................
....................................................................................................
....................................................................................................
....................................................................................................

Generation = 10, Population = 0.
....................................................................................................
....................................................................................................
....................................................................................................
....................................................................................................
....................................................................................................
....................................................................................................
....................................................................................................
....................................................................................................
....................................................................................................
....................................................................................................
....................................................................................................
....................................................................................................
....................................................................................................
....................................................................................................
....................................................................................................
....................................................................................................
....................................................................................................
....................................................................................................
....................................................................................................
....................................................................................................
....................................................................................................
....................................................................................................
....................................................................................................
....................................................................................................
....................................................................................................
....................................................................................................
....................................................................................................
....................................................................................................
....................................................................................................
....................................................................................................
....................................................................................................
....................................................................................................
....................................................................................................
....................................................................................................
....................................................................................................
....................................................................................................
....................................................................................................
....................................................................................................
....................................................................................................
....................................................................................................
....................................................................................................
....................................................................................................
....................................................................................................
....................................................................................................
....................................................................................................
....................................................................................................
....................................................................................................
....................................................................................................
....................................................................................................
....................................................................................................
....................................................................................................
....................................................................................................
....................................................................................................
....................................................................................................
....................................................................................................
....................................................................................................
....................................................................................................
....................................................................................................
....................................................................................................
....................................................................................................
....................................................................................................
....................................................................................................
....................................................................................................
....................................................................................................
....................................................................................................
....................................................................................................
....................................................................................................
....................................................................................................
....................................................................................................
....................................................................................................
....................................................................................................
....................................................................................................
....................................................................................................
....................................................................................................
....................................................................................................
....................................................................................................
....................................................................................................
....................................................................................................
....................................................................................................
....................................................................................................
....................................................................................................
....................................................................................................
....................................................................................................
....................................................................................................
....................................................................................................
....................................................................................................
....................................................................................................
....................................................................................................
....................................................................................................
....................................................................................................
....................................................................................................
....................................................................................................
....................................................................................................
....................................................................................................
....................................................................................................
....................................................................................................
....................................................................................................
....................................................................................................
....................................................................................................
....................................................................................................
